Web scraping – R Cookbook for the Casual Dabbler (3rd Edition)
…
…and we get a whole heap of mumbo jumbo.

To get the table of ‘Unofficial progression before the IAAF’ we’re going to have to be more specific.

Using the SelectGadget tool we can click around and identify that that specific table.

pre_iaaf <-
  m100 %>%
  html_element("div+ .wikitable :nth-child(1)") %>% ## select table element
  html_table() ## convert to data frame

pre_iaaf

# A tibble: 21 × 5
    Time Athlete               Nationality    `Location of races`     Date      
   <dbl> <chr>                 <chr>          <chr>                   <chr>     
 1  10.8 Luther Cary           United States  Paris, France           4 July 18…
 2  10.8 Cecil Lee             United Kingdom Brussels, Belgium       25 Septem…
 3  10.8 Étienne De Ré         Belgium        Brussels, Belgium       4 August …
 4  10.8 L. Atcherley          United Kingdom Frankfurt/Main, Germany 13 April …
 5  10.8 Harry Beaton          United Kingdom Rotterdam, Netherlands  28 August…
 6  10.8 Harald Anderson-Arbin Sweden         Helsingborg, Sweden     9 August …
 7  10.8 Isaac Westergren      Sweden         Gävle, Sweden           11 Septem…
 8  10.8 Isaac Westergren      Sweden         Gävle, Sweden           10 Septem…
 9  10.8 Frank Jarvis          United States  Paris, France           14 July 1…
10  10.8 Walter Tewksbury      United States  Paris, France           14 July 1…
# ℹ 11 more rows

Niiiiice - now that’s better. Let’s do some quick data cleaning.

pre_iaaf <- pre_iaaf %>%
  clean_names() %>%
  mutate(date = mdy(date))

pre_iaaf

# A tibble: 21 × 5
    time athlete               nationality    location_of_races       date      
   <dbl> <chr>                 <chr>          <chr>                   <date>    
 1  10.8 Luther Cary           United States  Paris, France           NA        
 2  10.8 Cecil Lee             United Kingdom Brussels, Belgium       NA        
 3  10.8 Étienne De Ré         Belgium        Brussels, Belgium       NA        
 4  10.8 L. Atcherley          United Kingdom Frankfurt/Main, Germany NA        
 5  10.8 Harry Beaton          United Kingdom Rotterdam, Netherlands  NA        
 6  10.8 Harald Anderson-Arbin Sweden         Helsingborg, Sweden     NA        
 7  10.8 Isaac Westergren      Sweden         Gävle, Sweden           1998-11-18
 8  10.8 Isaac Westergren      Sweden         Gävle, Sweden           1999-10-18
 9  10.8 Frank Jarvis          United States  Paris, France           NA        
10  10.8 Walter Tewksbury      United States  Paris, France           NA        
# ℹ 11 more rows
Let’s also scrape the data for the more recent running records. That’s the tables named ‘Records (1912-1976)’ and ‘Records since 1977’.

For the second table:

iaaf_76 <- m100 %>%
  html_element("#mw-content-text > div > table:nth-child(17)") %>%
  html_table()

iaaf_76 <- iaaf_76 %>%
  clean_names() %>%
  mutate(date = mdy(date))

iaaf_76

# A tibble: 54 × 8
    time wind   auto athlete       nationality location_of_race date       ref  
   <dbl> <chr> <dbl> <chr>         <chr>       <chr>            <date>     <chr>
 1  10.6 ""     NA   Donald Lippi… United Sta… Stockholm, Swed… NA         [2]  
 2  10.6 ""     NA   Jackson Scho… United Sta… Stockholm, Swed… NA         [2]  
 3  10.4 ""     NA   Charley Padd… United Sta… Redlands, USA    NA         [2]  
 4  10.4 "0.0"  NA   Eddie Tolan   United Sta… Stockholm, Swed… 2029-08-19 [2]  
 5  10.4 ""     NA   Eddie Tolan   United Sta… Copenhagen, Den… NA         [2]  
 6  10.3 ""     NA   Percy Willia… Canada      Toronto, Canada  2030-09-19 [2]  
 7  10.3 "0.4"  10.4 Eddie Tolan   United Sta… Los Angeles, USA 2032-01-19 [2]  
 8  10.3 ""     NA   Ralph Metcal… United Sta… Budapest, Hunga… 2033-12-19 [2]  
 9  10.3 ""     NA   Eulace Peaco… United Sta… Oslo, Norway     2034-06-19 [2]  
10  10.3 ""     NA   Chris Berger  Netherlands Amsterdam, Neth… NA         [2]  
# ℹ 44 more rows

And now for the third table:

iaaf <- m100 %>%
  html_element("#mw-content-text > div.mw-parser-output > table:nth-child(23)") %>%
  html_table() %>%
  clean_names() %>%
  mutate(date = mdy(date))
iaaf

# A tibble: 24 × 9
    time wind   auto athlete        nationality   location_of_race    date  
   <dbl> <chr> <dbl> <chr>          <chr>         <chr>               <date>
 1 10.1  1.3      NA Bob Hayes      United States Tokyo, Japan        NA    
 2 10.0  0.8      NA Jim Hines      United States Sacramento, USA     NA    
 3 10.0  2.0      NA Charles Greene United States Mexico City, Mexico NA    
 4  9.95 0.3      NA Jim Hines      United States Mexico City, Mexico NA    
 5  9.93 1.4      NA Calvin Smith   United States Colorado Springs, … NA    
 6  9.83 1.0      NA Ben Johnson    Canada        Rome, Italy         NA    
 7  9.93 1.0      NA Carl Lewis     United States Rome, Italy         NA    
 8  9.93 1.1      NA Carl Lewis     United States Zürich, Switzerland NA    
 9  9.79 1.1      NA Ben Johnson    Canada        Seoul, South Korea  NA    
10  9.92 1.1      NA Carl Lewis     United States Seoul, South Korea  NA    
# ℹ 14 more rows
# ℹ 2 more variables: notes_note_2 <chr>, duration_of_record <chr>

How good. Now let’s bind the rows together to make a master data set.

wr100 <- rbind(
  pre_iaaf %>% dplyr::select(time, athlete, nationality, date) %>%
    mutate(era = "Pre-IAAF"),
  iaaf_76 %>% dplyr::select(time, athlete, nationality, date) %>%
    mutate(era = "Pre-automatic"),
  iaaf %>% dplyr::select(time, athlete, nationality, date) %>%
    mutate(era = "Modern")
)

wr100

# A tibble: 99 × 5
    time athlete               nationality    date       era     
   <dbl> <chr>                 <chr>          <date>     <chr>   
 1  10.8 Luther Cary           United States  NA         Pre-IAAF
 2  10.8 Cecil Lee             United Kingdom NA         Pre-IAAF
 3  10.8 Étienne De Ré         Belgium        NA         Pre-IAAF
 4  10.8 L. Atcherley          United Kingdom NA         Pre-IAAF
 5  10.8 Harry Beaton          United Kingdom NA         Pre-IAAF
 6  10.8 Harald Anderson-Arbin Sweden         NA         Pre-IAAF
 7  10.8 Isaac Westergren      Sweden         1998-11-18 Pre-IAAF
 8  10.8 Isaac Westergren      Sweden         1999-10-18 Pre-IAAF
 9  10.8 Frank Jarvis          United States  NA         Pre-IAAF
10  10.8 Walter Tewksbury      United States  NA         Pre-IAAF
# ℹ 89 more rows
…
